\relax 
\providecommand\hyper@newdestlabel[2]{}
\FN@pp@footnotehinttrue 
\@writefile{toc}{\contentsline {chapter}{\numberline {3}Proposed Method}{5}{chapter.3}\protected@file@percent }
\@writefile{lof}{\addvspace {10\p@ }}
\@writefile{lot}{\addvspace {10\p@ }}
\@writefile{toc}{\contentsline {section}{\numberline {3.1}Data Preprocessing}{5}{section.3.1}\protected@file@percent }
\@writefile{lof}{\contentsline {figure}{\numberline {3.1}{\ignorespaces Data Preprocessing.\relax }}{5}{figure.3.1}\protected@file@percent }
\providecommand*\caption@xref[2]{\@setref\relax\@undefined{#1}}
\newlabel{data_pre}{{3.1}{5}{Data Preprocessing.\relax }{figure.3.1}{}}
\citation{beretta2016nearest}
\citation{hall1999feature}
\citation{zeng2015novel}
\citation{maji2011rough}
\citation{zeng2015novel}
\citation{jiang2015relative}
\citation{sebban2002hybrid}
\citation{yan2011correntropy}
\@writefile{toc}{\contentsline {subsection}{\numberline {3.1.1}Missing value Handling By KNN Imputation}{6}{subsection.3.1.1}\protected@file@percent }
\@writefile{brf}{\backcite{beretta2016nearest}{{6}{3.1.1}{subsection.3.1.1}}}
\@writefile{toc}{\contentsline {section}{\numberline {3.2}Correlation Feature Grouping Method}{6}{section.3.2}\protected@file@percent }
\@writefile{brf}{\backcite{hall1999feature}{{6}{3.2}{section.3.2}}}
\@writefile{brf}{\backcite{zeng2015novel}{{6}{3.2}{section.3.2}}}
\@writefile{brf}{\backcite{maji2011rough}{{6}{3.2}{section.3.2}}}
\@writefile{brf}{\backcite{zeng2015novel}{{6}{3.2}{section.3.2}}}
\@writefile{brf}{\backcite{jiang2015relative}{{6}{3.2}{section.3.2}}}
\@writefile{brf}{\backcite{sebban2002hybrid}{{6}{3.2}{section.3.2}}}
\@writefile{brf}{\backcite{yan2011correntropy}{{6}{3.2}{section.3.2}}}
\citation{hartigan1972direct}
\citation{frey2007clustering}
\citation{frey2007clustering}
\@writefile{toc}{\contentsline {subsection}{\numberline {3.2.1}Find Covariance Matrices Calculation for Each Sample}{7}{subsection.3.2.1}\protected@file@percent }
\newlabel{varx}{{3.1}{7}{Find Covariance Matrices Calculation for Each Sample}{equation.3.2.1}{}}
\newlabel{vary}{{3.2}{7}{Find Covariance Matrices Calculation for Each Sample}{equation.3.2.2}{}}
\newlabel{cov}{{3.3}{7}{Find Covariance Matrices Calculation for Each Sample}{equation.3.2.3}{}}
\@writefile{lot}{\contentsline {table}{\numberline {3.1}{\ignorespaces Example dataset}}{7}{table.caption.5}\protected@file@percent }
\@writefile{toc}{\contentsline {subsection}{\numberline {3.2.2}Affinity Propagation Clustering}{8}{subsection.3.2.2}\protected@file@percent }
\@writefile{brf}{\backcite{hartigan1972direct}{{8}{3.2.2}{subsection.3.2.2}}}
\@writefile{brf}{\backcite{frey2007clustering}{{8}{3.2.2}{subsection.3.2.2}}}
\@writefile{brf}{\backcite{frey2007clustering}{{8}{3.2.2}{subsection.3.2.2}}}
\citation{frey2007clustering}
\citation{vasudevan2014iterative}
\@writefile{brf}{\backcite{frey2007clustering}{{10}{3.2.2}{subsection.3.2.2}}}
\@writefile{toc}{\contentsline {subsection}{\numberline {3.2.3}Random Features from Cluster Group}{10}{subsection.3.2.3}\protected@file@percent }
\@writefile{toc}{\contentsline {section}{\numberline {3.3}Co-relation base feature selection with Clustering}{10}{section.3.3}\protected@file@percent }
\@writefile{toc}{\contentsline {subsection}{\numberline {3.3.1}Decision Tree}{10}{subsection.3.3.1}\protected@file@percent }
\@writefile{toc}{\contentsline {subsubsection}{\numberline {3.3.1.1}Decision Tree (ID3 Algorithm)}{10}{subsubsection.3.3.1.1}\protected@file@percent }
\@writefile{brf}{\backcite{vasudevan2014iterative}{{10}{3.3.1.1}{subsubsection.3.3.1.1}}}
\newlabel{infoD}{{3.4}{11}{Decision Tree (ID3 Algorithm)}{equation.3.3.4}{}}
\newlabel{infoAD}{{3.5}{11}{Decision Tree (ID3 Algorithm)}{equation.3.3.5}{}}
\newlabel{gain}{{3.6}{11}{Decision Tree (ID3 Algorithm)}{equation.3.3.6}{}}
\@writefile{loa}{\contentsline {algorithm}{\numberline {1}{\ignorespaces ID3 Algorithm}}{12}{algorithm.1}\protected@file@percent }
\citation{jakhar2018predication}
\citation{diaz2006gene}
\citation{belgiu2016random}
\citation{lawrence2006muscarinic}
\@writefile{toc}{\contentsline {subsubsection}{\numberline {3.3.1.2}Decision tree (CART)}{13}{subsubsection.3.3.1.2}\protected@file@percent }
\@writefile{toc}{\contentsline {subsection}{\numberline {3.3.2}Random Forest}{13}{subsection.3.3.2}\protected@file@percent }
\@writefile{brf}{\backcite{jakhar2018predication}{{13}{3.3.2}{subsection.3.3.2}}}
\@writefile{brf}{\backcite{diaz2006gene}{{13}{3.3.2}{subsection.3.3.2}}}
\@writefile{brf}{\backcite{belgiu2016random}{{13}{3.3.2}{subsection.3.3.2}}}
\@writefile{brf}{\backcite{lawrence2006muscarinic}{{13}{3.3.2}{subsection.3.3.2}}}
\citation{thiebault2018m2b}
\citation{svetnik2004application}
\citation{liaw2002classification}
\citation{hamby2008prediction}
\citation{hamby2008prediction}
\citation{khalilia2011predicting}
\citation{khalilia2011predicting}
\@writefile{brf}{\backcite{thiebault2018m2b}{{14}{3.3.2}{Item.6}}}
\@writefile{brf}{\backcite{svetnik2004application}{{14}{2}{Item.8}}}
\@writefile{brf}{\backcite{liaw2002classification}{{14}{3}{Item.9}}}
\@writefile{brf}{\backcite{hamby2008prediction}{{14}{4}{Item.10}}}
\@writefile{brf}{\backcite{hamby2008prediction}{{14}{5}{Item.11}}}
\@writefile{brf}{\backcite{khalilia2011predicting}{{14}{6}{Item.12}}}
\citation{jakhar2018predication}
\citation{basha2018impact}
\citation{ceylan2018feature}
\@writefile{brf}{\backcite{khalilia2011predicting}{{15}{7}{Item.13}}}
\@writefile{loa}{\contentsline {algorithm}{\numberline {2}{\ignorespaces Random Forest Algorithm}}{15}{algorithm.2}\protected@file@percent }
\@writefile{toc}{\contentsline {subsection}{\numberline {3.3.3}AdaBoost Algorithm}{15}{subsection.3.3.3}\protected@file@percent }
\@writefile{brf}{\backcite{jakhar2018predication}{{15}{3.3.3}{subsection.3.3.3}}}
\@writefile{brf}{\backcite{basha2018impact}{{15}{3.3.3}{subsection.3.3.3}}}
\@writefile{brf}{\backcite{ceylan2018feature}{{16}{3.3.3}{subsection.3.3.3}}}
\@writefile{loa}{\contentsline {algorithm}{\numberline {3}{\ignorespaces AdaBoost Algorithm}}{17}{algorithm.3}\protected@file@percent }
\@writefile{toc}{\contentsline {subsection}{\numberline {3.3.4}Voting Algorithm(Svm, C4.5, Logistic Regression)}{17}{subsection.3.3.4}\protected@file@percent }
\@writefile{toc}{\contentsline {subsection}{\numberline {3.3.5}Logistic Regression}{17}{subsection.3.3.5}\protected@file@percent }
\citation{lango2018multi}
\citation{lango2018multi}
\citation{abdallah2018fault}
\@writefile{toc}{\contentsline {subsection}{\numberline {3.3.6}Bagging Algorithm}{18}{subsection.3.3.6}\protected@file@percent }
\@writefile{brf}{\backcite{lango2018multi}{{18}{3.3.6}{subsection.3.3.6}}}
\@writefile{brf}{\backcite{lango2018multi}{{18}{3.3.6}{subsection.3.3.6}}}
\@writefile{brf}{\backcite{abdallah2018fault}{{18}{3.3.6}{subsection.3.3.6}}}
\@writefile{loa}{\contentsline {algorithm}{\numberline {4}{\ignorespaces Bagging Algorithm}}{19}{algorithm.4}\protected@file@percent }
\@writefile{toc}{\contentsline {subsection}{\numberline {3.3.7}SVM algorithm}{19}{subsection.3.3.7}\protected@file@percent }
\@writefile{loa}{\contentsline {algorithm}{\numberline {5}{\ignorespaces Training an SVM}}{19}{algorithm.5}\protected@file@percent }
\FN@pp@footnotehinttrue 
\@setckpt{chapter_3/Proposed-Method_ch3}{
\setcounter{page}{20}
\setcounter{equation}{6}
\setcounter{enumi}{7}
\setcounter{enumii}{0}
\setcounter{enumiii}{0}
\setcounter{enumiv}{0}
\setcounter{footnote}{0}
\setcounter{mpfootnote}{0}
\setcounter{part}{0}
\setcounter{chapter}{3}
\setcounter{section}{3}
\setcounter{subsection}{7}
\setcounter{subsubsection}{0}
\setcounter{paragraph}{0}
\setcounter{subparagraph}{0}
\setcounter{figure}{1}
\setcounter{table}{1}
\setcounter{float@type}{8}
\setcounter{parentequation}{0}
\setcounter{algorithm}{5}
\setcounter{ALC@unique}{65}
\setcounter{ALC@line}{6}
\setcounter{ALC@rem}{0}
\setcounter{ALC@depth}{0}
\setcounter{blindtext}{1}
\setcounter{Blindtext}{5}
\setcounter{blind@countparstart}{0}
\setcounter{blindlist}{0}
\setcounter{blindlistlevel}{0}
\setcounter{blindlist@level}{0}
\setcounter{blind@listcount}{0}
\setcounter{blind@levelcount}{0}
\setcounter{blind@randomcount}{0}
\setcounter{blind@randommax}{0}
\setcounter{blind@pangramcount}{0}
\setcounter{blind@pangrammax}{0}
\setcounter{caption@flags}{2}
\setcounter{ContinuedFloat}{0}
\setcounter{pp@next@reset}{1}
\setcounter{@fnserial}{0}
\setcounter{NAT@ctr}{0}
\setcounter{Item}{13}
\setcounter{Hfootnote}{0}
\setcounter{bookmark@seq@number}{24}
\setcounter{section@level}{2}
}
